Qyestion 3
…
We would start with deaths_us and cases_us data-sets from question 1.

deaths_us <- read_csv(here::here("data", "Death_US_final.csv"))
cases_us <- read_csv(here::here("data", "Cases_US_final.csv"))
deaths_us

## # A tibble: 25,575 x 5
##    State num_deaths area  Date       full_name 
##    <chr>      <dbl> <chr> <date>     <chr>     
##  1 AK             0 West  2020-02-29 Alaska    
##  2 AZ             0 West  2020-02-29 Arizona   
##  3 CA             0 West  2020-02-29 California
##  4 CO             0 West  2020-02-29 Colorado  
##  5 HI             0 West  2020-02-29 Hawaii    
##  6 ID             0 West  2020-02-29 Idaho     
##  7 MT             0 West  2020-02-29 Montana   
##  8 NM             0 West  2020-02-29 New Mexico
##  9 NV             0 West  2020-02-29 Nevada    
## 10 OR             0 West  2020-02-29 Oregon    
## # ... with 25,565 more rows

cases_us

## # A tibble: 26,400 x 4
##    State num_cases area  Date      
##    <chr>     <dbl> <chr> <date>    
##  1 AK            0 West  2020-01-21
##  2 AZ            0 West  2020-01-21
##  3 CA            0 West  2020-01-21
##  4 CO            0 West  2020-01-21
##  5 HI            0 West  2020-01-21
##  6 ID            0 West  2020-01-21
##  7 MT            0 West  2020-01-21
##  8 NM            0 West  2020-01-21
##  9 NV            0 West  2020-01-21
## 10 OR            0 West  2020-01-21
## # ... with 26,390 more rows

deaths_us <- deaths_us %>%
  rename(short_name = State)
cases_us <- cases_us %>% rename(short_name = State)
deaths_us

## # A tibble: 25,575 x 5
##    short_name num_deaths area  Date       full_name 
##    <chr>           <dbl> <chr> <date>     <chr>     
##  1 AK                  0 West  2020-02-29 Alaska    
##  2 AZ                  0 West  2020-02-29 Arizona   
##  3 CA                  0 West  2020-02-29 California
##  4 CO                  0 West  2020-02-29 Colorado  
##  5 HI                  0 West  2020-02-29 Hawaii    
##  6 ID                  0 West  2020-02-29 Idaho     
##  7 MT                  0 West  2020-02-29 Montana   
##  8 NM                  0 West  2020-02-29 New Mexico
##  9 NV                  0 West  2020-02-29 Nevada    
## 10 OR                  0 West  2020-02-29 Oregon    
## # ... with 25,565 more rows

cases_us

## # A tibble: 26,400 x 4
##    short_name num_cases area  Date      
##    <chr>          <dbl> <chr> <date>    
##  1 AK                 0 West  2020-01-21
##  2 AZ                 0 West  2020-01-21
##  3 CA                 0 West  2020-01-21
##  4 CO                 0 West  2020-01-21
##  5 HI                 0 West  2020-01-21
##  6 ID                 0 West  2020-01-21
##  7 MT                 0 West  2020-01-21
##  8 NM                 0 West  2020-01-21
##  9 NV                 0 West  2020-01-21
## 10 OR                 0 West  2020-01-21
## # ... with 26,390 more rows
…
Lets find all the relevant states with their full_name and short_name values.

countries <- deaths_us %>%
  select(short_name, full_name, area) %>%
  distinct() %>%
  mutate(full_name = if_else(short_name=="DC","District of Columbia", full_name )) %>%
  filter(!is.na(full_name)) 
countries

## # A tibble: 51 x 3
##    short_name full_name  area 
##    <chr>      <chr>      <chr>
##  1 AK         Alaska     West 
##  2 AZ         Arizona    West 
##  3 CA         California West 
##  4 CO         Colorado   West 
##  5 HI         Hawaii     West 
##  6 ID         Idaho      West 
##  7 MT         Montana    West 
##  8 NM         New Mexico West 
##  9 NV         Nevada     West 
## 10 OR         Oregon     West 
## # ... with 41 more rows

Merging the tables to one data-set:

merged_covid_wiki <- cases_us %>%
  left_join(deaths_us) %>%
  mutate(num_deaths = replace_na(num_deaths,0)) %>%
  select(short_name, num_cases, Date, num_deaths) %>%
  left_join(countries) 
merged_covid_wiki

## # A tibble: 26,400 x 6
##    short_name num_cases Date       num_deaths full_name  area 
##    <chr>          <dbl> <date>          <dbl> <chr>      <chr>
##  1 AK                 0 2020-01-21          0 Alaska     West 
##  2 AZ                 0 2020-01-21          0 Arizona    West 
##  3 CA                 0 2020-01-21          0 California West 
##  4 CO                 0 2020-01-21          0 Colorado   West 
##  5 HI                 0 2020-01-21          0 Hawaii     West 
##  6 ID                 0 2020-01-21          0 Idaho      West 
##  7 MT                 0 2020-01-21          0 Montana    West 
##  8 NM                 0 2020-01-21          0 New Mexico West 
##  9 NV                 0 2020-01-21          0 Nevada     West 
## 10 OR                 0 2020-01-21          0 Oregon     West 
## # ... with 26,390 more rows
…
## [1] "2021-06-07"

Exploration 1: data on election polls.

I have found a data-set that contains some elections polls.

We will see some visualizations in order to explore this collected information.

And the most important part- We will try to answer the research question based on creating connection between the wiki cases-deaths data-sets and the polls data-set.

elections_polls <- read_csv(here::here("data", "trump_biden_polls.csv")) %>%
  rename(full_name = state)
elections_polls

## # A tibble: 16,438 x 38
##    question_id poll_id cycle full_name pollster_id pollster sponsor_ids sponsors
##          <dbl>   <dbl> <dbl> <chr>           <dbl> <chr>          <dbl> <chr>   
##  1      136283   72621  2020 Iowa              383 Public ~          NA <NA>    
##  2      136283   72621  2020 Iowa              383 Public ~          NA <NA>    
##  3      136322   72647  2020 Pennsylv~         461 Susqueh~          NA <NA>    
##  4      136322   72647  2020 Pennsylv~         461 Susqueh~          NA <NA>    
##  5      136322   72647  2020 Pennsylv~         461 Susqueh~          NA <NA>    
##  6      136491   72722  2020 Florida           235 Opinion~         364 FOX35 O~
##  7      136491   72722  2020 Florida           235 Opinion~         364 FOX35 O~
##  8      136491   72722  2020 Florida           235 Opinion~         364 FOX35 O~
##  9      136338   72652  2020 <NA>             1478 Researc~          NA <NA>    
## 10      136338   72652  2020 <NA>             1478 Researc~          NA <NA>    
## # ... with 16,428 more rows, and 30 more variables: display_name <chr>,
## #   pollster_rating_id <dbl>, pollster_rating_name <chr>, fte_grade <chr>,
## #   sample_size <dbl>, population <chr>, population_full <chr>,
## #   methodology <chr>, office_type <chr>, seat_number <dbl>, seat_name <lgl>,
## #   start_date <chr>, end_date <chr>, election_date <chr>,
## #   sponsor_candidate <lgl>, internal <lgl>, partisan <chr>, tracking <lgl>,
## #   nationwide_batch <lgl>, ranked_choice_reallocated <lgl>, created_at <chr>,
## #   notes <chr>, url <chr>, stage <chr>, race_id <dbl>, answer <chr>,
## #   candidate_id <dbl>, candidate_name <chr>, candidate_party <chr>, pct <dbl>
…
elections_polls$end_date = as.Date(with(elections_polls, paste(Year2,Month2,Day2, sep = "-")), "%Y-%m-%d")  

elections_polls <-elections_polls %>% select(-Month1, -Month2, -Year1, -Year2, -Day1, -Day2)
elections_polls

## # A tibble: 16,438 x 38
##    question_id poll_id cycle full_name pollster_id pollster sponsor_ids sponsors
##          <dbl>   <dbl> <dbl> <chr>           <dbl> <chr>          <dbl> <chr>   
##  1      136283   72621  2020 Iowa              383 Public ~          NA <NA>    
##  2      136283   72621  2020 Iowa              383 Public ~          NA <NA>    
##  3      136322   72647  2020 Pennsylv~         461 Susqueh~          NA <NA>    
##  4      136322   72647  2020 Pennsylv~         461 Susqueh~          NA <NA>    
##  5      136322   72647  2020 Pennsylv~         461 Susqueh~          NA <NA>    
##  6      136491   72722  2020 Florida           235 Opinion~         364 FOX35 O~
##  7      136491   72722  2020 Florida           235 Opinion~         364 FOX35 O~
##  8      136491   72722  2020 Florida           235 Opinion~         364 FOX35 O~
##  9      136338   72652  2020 <NA>             1478 Researc~          NA <NA>    
## 10      136338   72652  2020 <NA>             1478 Researc~          NA <NA>    
## # ... with 16,428 more rows, and 30 more variables: display_name <chr>,
## #   pollster_rating_id <dbl>, pollster_rating_name <chr>, fte_grade <chr>,
## #   sample_size <dbl>, population <chr>, population_full <chr>,
## #   methodology <chr>, office_type <chr>, seat_number <dbl>, seat_name <lgl>,
## #   election_date <chr>, sponsor_candidate <lgl>, internal <lgl>,
## #   partisan <chr>, tracking <lgl>, nationwide_batch <lgl>,
## #   ranked_choice_reallocated <lgl>, created_at <chr>, notes <chr>, url <chr>,
## #   stage <chr>, race_id <dbl>, answer <chr>, candidate_id <dbl>,
## #   candidate_name <chr>, candidate_party <chr>, pct <dbl>, start_date <date>,
…
Changes in some of the States full_name values .

elections_polls <- elections_polls %>%
  filter(!is.na(full_name)) %>%
  mutate(full_name = case_when(
    full_name=="Nebraska CD-2" ~ "Nebraska",
    full_name=="Maine CD-2" ~ "Maine",
    full_name=="Maine CD-1" ~ "Maine",
    full_name=="Nebraska CD-1" ~ "Nebraska",
    T ~ full_name
  )) %>%
  left_join(countries) 
elections_polls  

## # A tibble: 11,385 x 40
##    question_id poll_id cycle full_name pollster_id pollster sponsor_ids sponsors
##          <dbl>   <dbl> <dbl> <chr>           <dbl> <chr>          <dbl> <chr>   
##  1      136283   72621  2020 Iowa              383 Public ~          NA <NA>    
##  2      136283   72621  2020 Iowa              383 Public ~          NA <NA>    
##  3      136322   72647  2020 Pennsylv~         461 Susqueh~          NA <NA>    
##  4      136322   72647  2020 Pennsylv~         461 Susqueh~          NA <NA>    
##  5      136322   72647  2020 Pennsylv~         461 Susqueh~          NA <NA>    
##  6      136491   72722  2020 Florida           235 Opinion~         364 FOX35 O~
##  7      136491   72722  2020 Florida           235 Opinion~         364 FOX35 O~
##  8      136491   72722  2020 Florida           235 Opinion~         364 FOX35 O~
##  9      136533   72754  2020 Nebraska         1613 Univers~          NA <NA>    
## 10      136533   72754  2020 Nebraska         1613 Univers~          NA <NA>    
## # ... with 11,375 more rows, and 32 more variables: display_name <chr>,
## #   pollster_rating_id <dbl>, pollster_rating_name <chr>, fte_grade <chr>,
## #   sample_size <dbl>, population <chr>, population_full <chr>,
## #   methodology <chr>, office_type <chr>, seat_number <dbl>, seat_name <lgl>,
## #   election_date <chr>, sponsor_candidate <lgl>, internal <lgl>,
## #   partisan <chr>, tracking <lgl>, nationwide_batch <lgl>,
## #   ranked_choice_reallocated <lgl>, created_at <chr>, notes <chr>, url <chr>,
## #   stage <chr>, race_id <dbl>, answer <chr>, candidate_id <dbl>,
## #   candidate_name <chr>, candidate_party <chr>, pct <dbl>, start_date <date>,
## #   end_date <date>, short_name <chr>, area <chr>

Matching the dates here to the dates in the merged_covid_wiki data-set.

Calculation of the difference between end_date and start_date

elections_polls <- elections_polls %>% filter(start_date<=max_date & start_date>=min_date & end_date<=max_date & end_date>=min_date) %>%
  mutate(diff = end_date-start_date,
         diff = as.numeric(diff))
elections_polls

## # A tibble: 9,808 x 41
##    question_id poll_id cycle full_name pollster_id pollster sponsor_ids sponsors
##          <dbl>   <dbl> <dbl> <chr>           <dbl> <chr>          <dbl> <chr>   
##  1      136283   72621  2020 Iowa              383 Public ~          NA <NA>    
##  2      136283   72621  2020 Iowa              383 Public ~          NA <NA>    
##  3      136322   72647  2020 Pennsylv~         461 Susqueh~          NA <NA>    
##  4      136322   72647  2020 Pennsylv~         461 Susqueh~          NA <NA>    
##  5      136322   72647  2020 Pennsylv~         461 Susqueh~          NA <NA>    
##  6      136491   72722  2020 Florida           235 Opinion~         364 FOX35 O~
##  7      136491   72722  2020 Florida           235 Opinion~         364 FOX35 O~
##  8      136491   72722  2020 Florida           235 Opinion~         364 FOX35 O~
##  9      136533   72754  2020 Nebraska         1613 Univers~          NA <NA>    
## 10      136533   72754  2020 Nebraska         1613 Univers~          NA <NA>    
## # ... with 9,798 more rows, and 33 more variables: display_name <chr>,
## #   pollster_rating_id <dbl>, pollster_rating_name <chr>, fte_grade <chr>,
## #   sample_size <dbl>, population <chr>, population_full <chr>,
## #   methodology <chr>, office_type <chr>, seat_number <dbl>, seat_name <lgl>,
## #   election_date <chr>, sponsor_candidate <lgl>, internal <lgl>,
## #   partisan <chr>, tracking <lgl>, nationwide_batch <lgl>,
## #   ranked_choice_reallocated <lgl>, created_at <chr>, notes <chr>, url <chr>,
## #   stage <chr>, race_id <dbl>, answer <chr>, candidate_id <dbl>,
## #   candidate_name <chr>, candidate_party <chr>, pct <dbl>, start_date <date>,
…
new is a temporary data-set that contain for each Date the results of all polls (in some State) the were occurring in this particular Date. the Date is between the polls start_date and end_date values.

Date_vec<-do.call("c", Date_list)
State_vec <- unlist(State_list)
winner_id_vec <- unlist(Winner_id_list)
winner_name_vec <- unlist(winner_name_list)

new <- tibble(Date = Date_vec,
              full_name = State_vec, 
              winner_id = winner_id_vec,
              winner_name = winner_name_vec,
              )
new

## # A tibble: 155,136 x 4
##    Date       full_name    winner_id winner_name
##    <date>     <chr>            <dbl> <chr>      
##  1 2020-11-01 Iowa             13256 Biden      
##  2 2020-11-02 Iowa             13256 Biden      
##  3 2020-11-01 Iowa             13254 Trump      
##  4 2020-11-02 Iowa             13254 Trump      
##  5 2020-11-01 Pennsylvania     13256 Biden      
##  6 2020-11-02 Pennsylvania     13256 Biden      
##  7 2020-11-01 Pennsylvania     13254 Trump      
##  8 2020-11-02 Pennsylvania     13254 Trump      
##  9 2020-11-01 Pennsylvania     14611 Jorgensen  
## 10 2020-11-02 Pennsylvania     14611 Jorgensen  
## # ... with 155,126 more rows

For each date and State: polls_prop contains the proportion of Trumps wins in the polls that was occurring in those dates and states.

polls_prop <- new %>% 
  mutate(winner_name = if_else(winner_name=="Trump", "Trump", "Not Trump")) %>%
  count(Date, full_name, winner_name) %>%
  group_by(Date, full_name) %>%
  mutate(p = n/sum(n)) 
polls_prop

## # A tibble: 17,142 x 5
## # Groups:   Date, full_name [8,571]
##    Date       full_name winner_name     n     p
##    <date>     <chr>     <chr>       <int> <dbl>
##  1 2020-01-21 Texas     Not Trump       7   0.5
##  2 2020-01-21 Texas     Trump           7   0.5
##  3 2020-01-22 Arizona   Not Trump       1   0.5
##  4 2020-01-22 Arizona   Trump           1   0.5
##  5 2020-01-22 Texas     Not Trump       7   0.5
##  6 2020-01-22 Texas     Trump           7   0.5
##  7 2020-01-23 Arizona   Not Trump       1   0.5
##  8 2020-01-23 Arizona   Trump           1   0.5
##  9 2020-01-23 Texas     Not Trump       7   0.5
## 10 2020-01-23 Texas     Trump           7   0.5
## # ... with 17,132 more rows
…
#ggsave("Distribution of the Average Proportions without facets.png")

Explanation: same plot but without facets. We can see now that in Northeast Trump has more support than the South and West.

Merging the polls_prop and merged_covid_wiki data-set.

Calculating the sum of cases and deaths for each record:

results_polls_corona <- polls_prop %>%
  left_join(merged_covid_wiki) %>%
  filter(!is.na(num_cases)) %>%
  mutate(cases_deaths = num_deaths + num_cases) 
results_polls_corona

## # A tibble: 16,814 x 10
## # Groups:   Date, full_name [8,407]
##    Date       full_name winner_name     n     p short_name num_cases num_deaths
##    <date>     <chr>     <chr>       <int> <dbl> <chr>          <dbl>      <dbl>
##  1 2020-01-21 Texas     Not Trump       7   0.5 TX                 0          0
##  2 2020-01-21 Texas     Trump           7   0.5 TX                 0          0
##  3 2020-01-24 Arizona   Not Trump       1   0.5 AZ                 0          0
##  4 2020-01-24 Arizona   Trump           1   0.5 AZ                 0          0
##  5 2020-01-24 Texas     Not Trump       7   0.5 TX                 0          0
##  6 2020-01-24 Texas     Trump           7   0.5 TX                 0          0
##  7 2020-01-25 Texas     Not Trump       7   0.5 TX                 0          0
##  8 2020-01-25 Texas     Trump           7   0.5 TX                 0          0
##  9 2020-01-26 Texas     Not Trump       7   0.5 TX                 0          0
## 10 2020-01-26 Texas     Trump           7   0.5 TX                 0          0
## # ... with 16,804 more rows, and 2 more variables: area <chr>,
## #   cases_deaths <dbl>
…
Lets start with 2020:

First - data tidying.

president_state <- president_state %>% rename(full_name = state) %>%
   left_join(countries) %>%
  mutate(short_name = case_when(
    full_name=="District of Columbia" ~ "DC",
    full_name=="United States" ~ "US",
    T ~ short_name
  )) 
president_state

## # A tibble: 52 x 4
##    full_name            total_votes short_name area     
##    <chr>                      <dbl> <chr>      <chr>    
##  1 Delaware                  504010 DE         Northeast
##  2 District of Columbia      344356 DC         Northeast
##  3 Florida                 11067456 FL         South    
##  4 Georgia                  4997716 GA         South    
##  5 Hawaii                    574469 HI         West     
##  6 Idaho                     868106 ID         West     
##  7 Illinois                 6038843 IL         Midwest  
##  8 Indiana                  3033198 IN         Midwest  
##  9 Iowa                     1690871 IA         Midwest  
## 10 Kansas                   1375304 KS         Midwest  
## # ... with 42 more rows

calculate the proportion of votes to Trump for each states short_name

(elections_2020_prop<-president_country_candidate %>%
  mutate(candidate = if_else(candidate=="Donald Trump", "Trump", "Not Trump")) %>%
  group_by(full_name, candidate )%>%
  summarise(state_candidate_votes = sum(total_votes, na.rm = T), .groups = "drop") %>%
  group_by(full_name) %>%
  mutate(prop2020 = state_candidate_votes/sum(state_candidate_votes)) %>%
  left_join(president_state , by= "full_name") %>%
  ungroup() %>%
  select(short_name,candidate, prop2020 ) %>%
  group_by(short_name, candidate))

## # A tibble: 102 x 3
## # Groups:   short_name, candidate [102]
##    short_name candidate prop2020
##    <chr>      <chr>        <dbl>
##  1 AL         Not Trump    0.380
##  2 AL         Trump        0.620
##  3 AK         Not Trump    0.515
##  4 AK         Trump        0.485
##  5 AZ         Not Trump    0.509
##  6 AZ         Trump        0.491
##  7 AR         Not Trump    0.376
##  8 AR         Trump        0.624
##  9 CA         Not Trump    0.657
## 10 CA         Trump        0.343
## # ... with 92 more rows
…
