Question 2
…
trump_tweets_words <- trump_tweets %>%
  mutate(
    text = str_replace_all(text, "COVID-19", "COVID_19"),
    text = str_replace_all(text, "COVID 19", "COVID_19"),
    text = str_replace_all(text, "Covid-19", "COVID_19"),
    text = str_replace_all(text, "Covid 19", "COVID_19"),
    text = str_replace_all(text, "#COVID19", "COVID_19"),
    text = str_replace_all(text, "covid 19", "COVID_19"),
    text = str_replace_all(text, "Coronavirus", "COVID_19"),
    text = str_replace_all(text, "coronavirus", "COVID_19")
  ) %>%
  unnest_tokens(word, text)
trump_tweets_words

## # A tibble: 34,399 x 11
##    date_hour           favorites id          isRetweet retweets date        wday
##    <dttm>                  <int> <chr>       <lgl>        <int> <date>     <dbl>
##  1 2020-04-04 16:48:47         0 1246434545~ TRUE          4410 2020-04-04     7
##  2 2020-04-04 16:48:47         0 1246434545~ TRUE          4410 2020-04-04     7
##  3 2020-04-04 16:48:47         0 1246434545~ TRUE          4410 2020-04-04     7
##  4 2020-04-04 16:48:47         0 1246434545~ TRUE          4410 2020-04-04     7
##  5 2020-04-04 16:48:47         0 1246434545~ TRUE          4410 2020-04-04     7
##  6 2020-04-04 16:48:47         0 1246434545~ TRUE          4410 2020-04-04     7
##  7 2020-04-04 16:48:47         0 1246434545~ TRUE          4410 2020-04-04     7
##  8 2020-04-04 16:48:47         0 1246434545~ TRUE          4410 2020-04-04     7
##  9 2020-04-04 16:48:47         0 1246434545~ TRUE          4410 2020-04-04     7
## 10 2020-04-04 16:48:47         0 1246434545~ TRUE          4410 2020-04-04     7
## # ... with 34,389 more rows, and 4 more variables: weekend <chr>,
## #   day_part <chr>, n_words <int>, word <chr>
…
  # makes 4 rows for every row above. 2 with each word.
  unnest_tokens(word, bigram,token = "tweets", drop = FALSE) %>%  
  
  # takes the new word column mentioned above and gets rid of all rows with
  # stopwords as 'words'
  anti_join(stop_words) %>%
  # gets rid of of rows where the 'word' col includes the following words.
   filter(!(word %in% c("rt", "tco", "https", "RT", "tc"))) %>%
   group_by(i) %>%  
   filter(n() == 2) %>% 
   summarise(bigram = unique(bigram), .groups = "drop")
trump_tweets_bigrams

## # A tibble: 6,416 x 2
##        i bigram                     
##    <int> <chr>                      
##  1     6 president kaljulaid        
##  2    27 o3rkp1rwrx ivankatrump     
##  3    28 ivankatrump paidfamilyleave
##  4    32 couldnt agree             
##  5    36 national parks             
##  6    39 national treasures         
##  7    50 sencapito proud            
##  8    57 conservation legislation   
##  9    62 west virginia              
## 10    63 virginia wildandwonderful  
## # ... with 6,406 more rows
…
